…
Kenometrics provides support for a variety of other types of datasets.
Simply specify the name of the file/dataset and the type of data.

``` r
#Code needed to obtain the NASA file on the user's computer
file = system.file("extdata", "NASA.xlsx", package="Kenometrics")
my_wd =substr(file,0,nchar(file)-nchar("NASA.xlsx")-1)

#Once the working directory has been obtained, the get_data function can be used
NASA_data <- get_data("NASA", type="excel", file_loc = my_wd)
print(NASA_data)
#> # A tibble: 140 x 3
#>     Year No_Smoothing Lowess
#>    <dbl>        <dbl>  <dbl>
#>  1  1880        -0.16  -0.09
#>  2  1881        -0.08  -0.12
#>  3  1882        -0.1   -0.16
#>  4  1883        -0.17  -0.2 
#>  5  1884        -0.28  -0.23
#>  6  1885        -0.32  -0.25
#>  7  1886        -0.3   -0.26
#>  8  1887        -0.35  -0.26
#>  9  1888        -0.16  -0.26
#> 10  1889        -0.1   -0.25
#> # ... with 130 more rows
```
…
